<?xml version="1.0" encoding="UTF-8" standalone="no"?>
<svg width="277px" height="61px" viewBox="0 0 277 61" version="1.1" xmlns="http://www.w3.org/2000/svg" xmlns:xlink="http://www.w3.org/1999/xlink">
    <!-- Generator: Sketch 39.1 (31720) - http://www.bohemiancoding.com/sketch -->
    <title>Smartface</title>
    <desc>Created with Sketch.</desc>
    <defs></defs>
    <g id="Page-1" stroke="none" stroke-width="1" fill="none" fill-rule="evenodd" font-weight="500" font-family="Seravek-MediumItalic, Seravek, Inter, Segoe UI, Roboto, Ubuntu" letter-spacing="-1" font-size="62" font-style="italic">
        <g id="t" transform="translate(-63.000000, -111.000000)" fill="#FFFFFF">
            <text id="Smartface">
                <tspan x="62" y="158">Smar</tspan>
            </text>
            <text id="Smartface">
                <tspan x="200.5" y="158">t</tspan>
            </text>
            <text id="Smartface">
                <tspan x="225.5" y="158">face</tspan>
            </text>
        </g>
    </g>
</svg>